{
	"info": {
		"_postman_id": "3267910e-13a8-4067-b8be-fc12a4998356",
		"name": "BACK02 - API REST MONGODB",
		"schema": "https://schema.getpostman.com/json/collection/v2.1.0/collection.json"
	},
	"item": [
		{
			"name": "Cuenta Cliente",
			"item": [
				{
					"name": "Obtener cuentas clientes especifico",
					"request": {
						"method": "GET",
						"header": [],
						"url": {
							"raw": "http://localhost:8080/api/v1/clientes/12351326/cuentas",
							"protocol": "http",
							"host": [
								"localhost"
							],
							"port": "8080",
							"path": [
								"api",
								"v1",
								"clientes",
								"12351326",
								"cuentas"
							]
						}
					},
					"response": []
				},
				{
					"name": "Agregar cuenta (aleatorio)",
					"event": [
						{
							"listen": "prerequest",
							"script": {
								"exec": [
									"// Generar un documento aleatorio.\",\t\t\t\t\t\t\t\r",
									"const numero = Math.trunc(1234567890000000 + Math.random() * 8888);\t\t\t\t\t\t\t\r",
									"\t\t\t\t\t\t\t\r",
									"// generar un nombre completo aleatorio.\",\t\t\t\t\t\t\t\r",
									"const monedas = [\"PEN\",\"USD\"];\t\t\r",
									"const unMoneda = monedas[_.random(monedas.length - 1)];\t\t\t\t\t\t\t\r",
									"const tipos = [\"Ahorro\",\"CtaFija\",\"CtaGanadora\"];\t\t\t\t\t\t\t\t\t\t\t\r",
									"const unTipo = tipos[_.random(tipos.length - 1)];\t\t\r",
									"const estados = [\"Activo\",\"Inactivo\"];\t\t\t\t\t\t\t\t\t\t\t\r",
									"const unEstado = estados[_.random(estados.length - 1)];\t\t\t\t\t\t\t\t\t\t\t\t\r",
									"\t\t\t\t\t\t\t\t\t\t\t\t\r",
									"\t\t\t\t\t\t\t\r",
									"const saldo = _.random(1000, 10000);\t\t\t\t\t\t\t\r",
									"\t\t\t\t\t\r",
									"\t\t\t\t\t\t\t\r",
									"const oficina = _.random(1000,777);\t\t\t\t\t\t\t\t\t\t\t\t\t\r",
									"\t\t\t\t\t\t\t\r",
									"pm.globals.set(\"numero\",numero);\t\t\t\t\t\t\t\r",
									"pm.globals.set(\"moneda\", unMoneda);\t\t\t\t\t\t\t\r",
									"pm.globals.set(\"saldo\", saldo);\t\t\t\t\t\t\t\r",
									"pm.globals.set(\"tipo\", unTipo);\t\t\t\t\t\t\t\r",
									"pm.globals.set(\"estado\", unEstado);\t\t\t\t\t\t\t\r",
									"pm.globals.set(\"oficina\", oficina);\t\r",
									"\r",
									"  console.log(\"numero\"+pm.variables.get(\"numero\"))\r",
									"  console.log(\"moneda\"+pm.variables.get(\"moneda\"))\r",
									"  console.log(\"saldo\"+pm.variables.get(\"saldo\"))\r",
									"  console.log(\"tipo\"+pm.variables.get(\"tipo\"))\r",
									"  console.log(\"estado\"+pm.variables.get(\"estado\"))\r",
									"  console.log(\"oficina\"+pm.variables.get(\"oficina\"))\r",
									"\t\t\t\t\t\t\r",
									"\t\t\t\t\t\t"
								],
								"type": "text/javascript"
							}
						}
					],
					"request": {
						"method": "POST",
						"header": [],
						"body": {
							"mode": "raw",
							"raw": "{\r\n    \"numero\": \"1234567890006737\"\r\n}",
							"options": {
								"raw": {
									"language": "json"
								}
							}
						},
						"url": {
							"raw": "http://localhost:8080/api/v1/clientes/12351326/cuentas",
							"protocol": "http",
							"host": [
								"localhost"
							],
							"port": "8080",
							"path": [
								"api",
								"v1",
								"clientes",
								"12351326",
								"cuentas"
							]
						}
					},
					"response": []
				}
			]
		},
		{
			"name": "Cliente",
			"item": [
				{
					"name": "Obtener Clientes",
					"request": {
						"method": "GET",
						"header": [],
						"url": {
							"raw": "http://localhost:8080/api/v1/clientes/?pagina=1&cantidad=5",
							"protocol": "http",
							"host": [
								"localhost"
							],
							"port": "8080",
							"path": [
								"api",
								"v1",
								"clientes",
								""
							],
							"query": [
								{
									"key": "pagina",
									"value": "1"
								},
								{
									"key": "cantidad",
									"value": "5"
								}
							]
						}
					},
					"response": []
				},
				{
					"name": "Obtener un Cliente",
					"protocolProfileBehavior": {
						"disableBodyPruning": true
					},
					"request": {
						"method": "GET",
						"header": [],
						"body": {
							"mode": "raw",
							"raw": "",
							"options": {
								"raw": {
									"language": "json"
								}
							}
						},
						"url": {
							"raw": "http://localhost:8080/api/v1/clientes/12351839",
							"protocol": "http",
							"host": [
								"localhost"
							],
							"port": "8080",
							"path": [
								"api",
								"v1",
								"clientes",
								"12351839"
							]
						}
					},
					"response": []
				},
				{
					"name": "Reemplazar un Cliente (todos los campos)",
					"request": {
						"method": "PUT",
						"header": [],
						"body": {
							"mode": "raw",
							"raw": "{\r\n    \"documento\": \"12351399\",\r\n    \"nombre\": \"Yessica Tatiana Garro\",\r\n    \"edad\": \"28\",\r\n    \"fechaNacimiento\": \"23/01/1990\",\r\n    \"cuentas\": []\r\n}",
							"options": {
								"raw": {
									"language": "json"
								}
							}
						},
						"url": {
							"raw": "http://localhost:8080/api/v1/clientes/12351399",
							"protocol": "http",
							"host": [
								"localhost"
							],
							"port": "8080",
							"path": [
								"api",
								"v1",
								"clientes",
								"12351399"
							]
						}
					},
					"response": []
				},
				{
					"name": "Reemplazar un Cliente (campo especifico)",
					"request": {
						"method": "PATCH",
						"header": [],
						"body": {
							"mode": "raw",
							"raw": "{\r\n    \"documento\": \"12348309\",\r\n    \"edad\": \"28\",\r\n    \"fechaNacimiento\": \"23/01/1992\",\r\n    \"nombre\": \"Yessica Bramon\"\r\n}",
							"options": {
								"raw": {
									"language": "json"
								}
							}
						},
						"url": {
							"raw": "http://localhost:8080/api/v1/clientes/12348309",
							"protocol": "http",
							"host": [
								"localhost"
							],
							"port": "8080",
							"path": [
								"api",
								"v1",
								"clientes",
								"12348309"
							]
						}
					},
					"response": []
				},
				{
					"name": "Agregar Cliente",
					"event": [
						{
							"listen": "prerequest",
							"script": {
								"exec": [
									"// Generar un documento aleatorio.\r",
									"const documento = Math.trunc(12345678 + Math.random() * 8888);\r",
									"\r",
									"\r",
									"// Generar un nombre completo aleatorio.\r",
									"const apellidos = [\"Garro\",\"Sanchez\",\"Miranda\",\"Ortiz\",\"Perez\"];\r",
									"const nombres = [\"Juan\",\"Ana\",\"Graciela\",\"Roberto\",\"Jaime\"];\r",
									"const unApellido = apellidos[_.random(apellidos.length - 1)];\r",
									"const unNombre = nombres[_.random(nombres.length - 1)];\r",
									"const nombreCompleto = unNombre + \" \" + unApellido;\r",
									"\r",
									"\r",
									"const correo_e = unNombre + \".\" + unApellido + \"@micorreo.com\";\r",
									"\r",
									"\r",
									"const edad = _.random(18, 98);\r",
									"\r",
									"\r",
									"const a = 2021 - edad;\r",
									"const m = _.random(1, 12);\r",
									"const d = _.random(1, 28);\r",
									"const fechaNacimiento = a + \"/\" + m + \"/\" + d;\r",
									"\r",
									"\r",
									"const direccion = \"Santa Rosa de Lima N° \" + _.random(100,1079);\r",
									"\r",
									"\r",
									"const t1 = _.random(100,777);\r",
									"const t2 = _.random(100,777);\r",
									"const t3 = _.random(100,777);\r",
									"const telefono = t1 + \" \" + t2 + \" \" + t3;\r",
									"\r",
									"\r",
									"pm.globals.set(\"direccion\",direccion);\r",
									"pm.globals.set(\"telefono\", telefono);\r",
									"pm.globals.set(\"correo_electronico\", correo_e);\r",
									"pm.globals.set(\"nombreCompleto\", nombreCompleto);\r",
									"pm.globals.set(\"documento\", documento);\r",
									"pm.globals.set(\"edad\", edad);\r",
									"pm.globals.set(\"fechaNacimiento\", fechaNacimiento);\r",
									"\r",
									""
								],
								"type": "text/javascript"
							}
						}
					],
					"request": {
						"method": "POST",
						"header": [],
						"body": {
							"mode": "raw",
							"raw": "{\r\n        \"documento\": \"{{documento}}\",\r\n        \"nombre\": \"{{nombreCompleto}}\",\r\n        \"edad\": \"{{edad}}\",\r\n        \"fechaNacimiento\": \"{{fechaNacimiento}}\",\r\n        \"telefono\": \"{{telefono}}\",\r\n        \"correo\": \"{{correo_electronico}}\",\r\n        \"direccion\": \"{{direccion}}\"\r\n}",
							"options": {
								"raw": {
									"language": "json"
								}
							}
						},
						"url": {
							"raw": "http://localhost:8080/api/v1/clientes/",
							"protocol": "http",
							"host": [
								"localhost"
							],
							"port": "8080",
							"path": [
								"api",
								"v1",
								"clientes",
								""
							]
						}
					},
					"response": []
				},
				{
					"name": "Eliminar Cliente",
					"request": {
						"method": "DELETE",
						"header": [],
						"url": {
							"raw": "http://localhost:8080/api/v1/clientes/12351399",
							"protocol": "http",
							"host": [
								"localhost"
							],
							"port": "8080",
							"path": [
								"api",
								"v1",
								"clientes",
								"12351399"
							]
						}
					},
					"response": []
				}
			]
		},
		{
			"name": "Cuenta",
			"item": [
				{
					"name": "Obtener Cuenta",
					"request": {
						"method": "GET",
						"header": [],
						"url": {
							"raw": "http://localhost:8080/api/v1/cuentas/?pagina=1&cantidad=5",
							"protocol": "http",
							"host": [
								"localhost"
							],
							"port": "8080",
							"path": [
								"api",
								"v1",
								"cuentas",
								""
							],
							"query": [
								{
									"key": "pagina",
									"value": "1"
								},
								{
									"key": "cantidad",
									"value": "5"
								}
							]
						}
					},
					"response": []
				},
				{
					"name": "Obtener Cuenta especifico",
					"request": {
						"method": "GET",
						"header": [],
						"url": {
							"raw": "http://localhost:8080/api/v1/cuentas/1234567890003303",
							"protocol": "http",
							"host": [
								"localhost"
							],
							"port": "8080",
							"path": [
								"api",
								"v1",
								"cuentas",
								"1234567890003303"
							]
						}
					},
					"response": []
				},
				{
					"name": "Reemplazar cuenta especifico",
					"request": {
						"method": "PUT",
						"header": [],
						"body": {
							"mode": "raw",
							"raw": "{\r\n    \"numero\": \"1234567890006075\",\r\n    \"moneda\": \"PEN\",\r\n    \"saldo\": 100.000\r\n}",
							"options": {
								"raw": {
									"language": "json"
								}
							}
						},
						"url": {
							"raw": "http://localhost:8080/api/v1/cuentas/1234567890006075",
							"protocol": "http",
							"host": [
								"localhost"
							],
							"port": "8080",
							"path": [
								"api",
								"v1",
								"cuentas",
								"1234567890006075"
							]
						}
					},
					"response": []
				},
				{
					"name": "Reemplazar cuenta especifico",
					"request": {
						"method": "PATCH",
						"header": [],
						"body": {
							"mode": "raw",
							"raw": "{\r\n    \"numero\": \"1234567890006737\",\r\n    \"moneda\": \"PEN\",\r\n    \"saldo\": 70.000\r\n}",
							"options": {
								"raw": {
									"language": "json"
								}
							}
						},
						"url": {
							"raw": "http://localhost:8080/api/v1/cuentas/1234567890006737",
							"protocol": "http",
							"host": [
								"localhost"
							],
							"port": "8080",
							"path": [
								"api",
								"v1",
								"cuentas",
								"1234567890006737"
							]
						}
					},
					"response": []
				},
				{
					"name": "Agregar cuenta",
					"event": [
						{
							"listen": "prerequest",
							"script": {
								"exec": [
									"// Generar un documento aleatorio.\",\t\t\t\t\t\t\t\r",
									"const numero = Math.trunc(1234567890000000 + Math.random() * 8888);\t\t\t\t\t\t\t\r",
									"\t\t\t\t\t\t\t\r",
									"// generar un nombre completo aleatorio.\",\t\t\t\t\t\t\t\r",
									"const monedas = [\"PEN\",\"USD\"];\t\t\r",
									"const unMoneda = monedas[_.random(monedas.length - 1)];\t\t\t\t\t\t\t\r",
									"const tipos = [\"Ahorro\",\"CtaFija\",\"CtaGanadora\"];\t\t\t\t\t\t\t\t\t\t\t\r",
									"const unTipo = tipos[_.random(tipos.length - 1)];\t\t\r",
									"const estados = [\"Activo\",\"Inactivo\"];\t\t\t\t\t\t\t\t\t\t\t\r",
									"const unEstado = estados[_.random(estados.length - 1)];\t\t\t\t\t\t\t\t\t\t\t\t\r",
									"\t\t\t\t\t\t\t\t\t\t\t\t\r",
									"\t\t\t\t\t\t\t\r",
									"const saldo = _.random(1000, 10000);\t\t\t\t\t\t\t\r",
									"\t\t\t\t\t\r",
									"\t\t\t\t\t\t\t\r",
									"const oficina = _.random(1000,777);\t\t\t\t\t\t\t\t\t\t\t\t\t\r",
									"\t\t\t\t\t\t\t\r",
									"pm.globals.set(\"numero\",numero);\t\t\t\t\t\t\t\r",
									"pm.globals.set(\"moneda\", unMoneda);\t\t\t\t\t\t\t\r",
									"pm.globals.set(\"saldo\", saldo);\t\t\t\t\t\t\t\r",
									"pm.globals.set(\"tipo\", unTipo);\t\t\t\t\t\t\t\r",
									"pm.globals.set(\"estado\", unEstado);\t\t\t\t\t\t\t\r",
									"pm.globals.set(\"oficina\", oficina);\t\r",
									"\r",
									"  console.log(\"numero\"+pm.variables.get(\"numero\"))\r",
									"  console.log(\"moneda\"+pm.variables.get(\"moneda\"))\r",
									"  console.log(\"saldo\"+pm.variables.get(\"saldo\"))\r",
									"  console.log(\"tipo\"+pm.variables.get(\"tipo\"))\r",
									"  console.log(\"estado\"+pm.variables.get(\"estado\"))\r",
									"  console.log(\"oficina\"+pm.variables.get(\"oficina\"))"
								],
								"type": "text/javascript"
							}
						}
					],
					"request": {
						"method": "POST",
						"header": [],
						"body": {
							"mode": "raw",
							"raw": " {\r\n    \"numero\": \"{{numero}}\",\r\n    \"moneda\": \"{{moneda}}\",\r\n    \"saldo\": \"{{saldo}}\",\r\n    \"tipo\": \"{{tipo}}\",\r\n    \"estado\": \"{{estado}}\",\r\n    \"oficina\": \"{{oficina}}\"\r\n}",
							"options": {
								"raw": {
									"language": "json"
								}
							}
						},
						"url": {
							"raw": "http://localhost:8080/api/v1/cuentas/",
							"protocol": "http",
							"host": [
								"localhost"
							],
							"port": "8080",
							"path": [
								"api",
								"v1",
								"cuentas",
								""
							]
						}
					},
					"response": []
				},
				{
					"name": "Eliminar Cuenta",
					"request": {
						"method": "DELETE",
						"header": [],
						"url": {
							"raw": "http://localhost:8080/api/v1/cuentas/1234567890006075",
							"protocol": "http",
							"host": [
								"localhost"
							],
							"port": "8080",
							"path": [
								"api",
								"v1",
								"cuentas",
								"1234567890006075"
							]
						}
					},
					"response": []
				}
			]
		}
	]
}